Novel vs. repeated choice project: Behavioral data checks
…
Each subject has their unique set of 12 HT stimuli.

data_yn %>%
  filter(type == 1) %>%
  group_by(subnum) %>%
  summarise(ht_stims = unique(stimNum), .groups="keep")

## # A tibble: 72 × 2
## # Groups:   subnum [6]
##    subnum ht_stims
##     <int>    <int>
##  1    601      371
##  2    601      123
##  3    601      333
##  4    601      645
##  5    601      372
##  6    601      698
##  7    601      620
##  8    601      100
##  9    601      670
## 10    601      158
## # … with 62 more rows
…
